\relax 
\catcode`"\active
\select@language{ngerman}
\@writefile{toc}{\select@language{ngerman}}
\@writefile{lof}{\select@language{ngerman}}
\@writefile{lot}{\select@language{ngerman}}
\@writefile{toc}{\contentsline {paragraph}{\nonumberline Extremwerte}{1}}
\@writefile{toc}{\contentsline {paragraph}{\nonumberline Integralrechnung}{1}}
\@writefile{toc}{\contentsline {subparagraph}{\nonumberline Integralbegriff}{1}}
\@writefile{toc}{\contentsline {subparagraph}{\nonumberline Integrationsverfahren}{1}}
\@writefile{toc}{\contentsline {subsubsection}{\nonumberline Arten der Verfahren}{1}}
\@writefile{toc}{\contentsline {subparagraph}{\nonumberline Numerische Integration}{1}}
\@writefile{toc}{\contentsline {subparagraph}{\nonumberline uneigentliche Integrale}{2}}
\@writefile{toc}{\contentsline {paragraph}{\nonumberline Folgen \& Reihen}{2}}
\@writefile{toc}{\contentsline {subparagraph}{\nonumberline Definition}{2}}
